verilator.vcd
$version Generated by VerilatedVcd $end
$date Sun Mar 11 17:08:46 2018
 $end
$timescale   1ns $end

 $scope module TOP $end
  $var wire  1 5 aclk $end
  $var wire  1 6 areset $end
  $var wire  8 7 inp_vect [7:0] $end
  $var wire  1 9 inp_vect_rdy $end
  $var wire  1 8 inp_vect_valid $end
  $var wire 19 > m_axis_tdata [18:0] $end
  $var wire  1 @ m_axis_tlast $end
  $var wire  1 A m_axis_tready $end
  $var wire  1 ? m_axis_tvalid $end
  $var wire  8 : s_axis_tdata [7:0] $end
  $var wire  1 < s_axis_tlast $end
  $var wire  1 = s_axis_tready $end
  $var wire  1 ; s_axis_tvalid $end
  $scope module mat_vect_mult2 $end
   $var wire  1 5 aclk $end
   $var wire  1 6 areset $end
   $var wire  3 + count [2:0] $end
   $var wire  8 7 inp_vect [7:0] $end
   $var wire  8 # inp_vect_lat(0) [7:0] $end
   $var wire  8 $ inp_vect_lat(1) [7:0] $end
   $var wire  8 % inp_vect_lat(2) [7:0] $end
   $var wire  8 & inp_vect_lat(3) [7:0] $end
   $var wire  8 ' inp_vect_lat(4) [7:0] $end
   $var wire  8 ( inp_vect_lat(5) [7:0] $end
   $var wire  8 ) inp_vect_lat(6) [7:0] $end
   $var wire  8 * inp_vect_lat(7) [7:0] $end
   $var wire  1 9 inp_vect_rdy $end
   $var wire  8 - inp_vect_reg(0) [7:0] $end
   $var wire  8 . inp_vect_reg(1) [7:0] $end
   $var wire  8 / inp_vect_reg(2) [7:0] $end
   $var wire  8 0 inp_vect_reg(3) [7:0] $end
   $var wire  8 1 inp_vect_reg(4) [7:0] $end
   $var wire  8 2 inp_vect_reg(5) [7:0] $end
   $var wire  8 3 inp_vect_reg(6) [7:0] $end
   $var wire  8 4 inp_vect_reg(7) [7:0] $end
   $var wire  1 8 inp_vect_valid $end
   $var wire 19 > m_axis_tdata [18:0] $end
   $var wire  1 @ m_axis_tlast $end
   $var wire  1 A m_axis_tready $end
   $var wire  1 ? m_axis_tvalid $end
   $var wire  8 : s_axis_tdata [7:0] $end
   $var wire  1 < s_axis_tlast $end
   $var wire  1 = s_axis_tready $end
   $var wire  1 ; s_axis_tvalid $end
   $var wire  3 , slice [2:0] $end
  $upscope $end
 $upscope $end
$enddefinitions $end


#1
b00000000 #
b00000000 $
b00000000 %
b00000000 &
b00000000 '
b00000000 (
b00000000 )
b00000000 *
b000 +
b000 ,
b00000000 -
b00000000 .
b00000000 /
b00000000 0
b00000000 1
b00000000 2
b00000000 3
b00000000 4
05
16
b00000010 7
18
09
b00000001 :
1;
0<
0=
b0000000000000000000 >
0?
0@
1A
#2
15
#3
05
06
#4
b00000010 #
15
19
1=
#5
05
#6
b00000010 $
b001 ,
b00000010 -
15
b0000000000000000010 >
#7
05
b00000010 :
#8
b00000010 %
b010 ,
b00000010 .
15
b0000000000000000110 >
#9
05
b00000011 :
#10
b00000010 &
b011 ,
b00000010 /
15
b0000000000000001100 >
#11
05
b00000100 :
#12
b00000010 '
b100 ,
b00000010 0
15
b0000000000000010100 >
#13
05
b00000101 :
#14
b00000010 (
b101 ,
b00000010 1
15
b0000000000000011110 >
#15
05
b00000110 :
#16
b00000010 )
b110 ,
b00000010 2
15
b0000000000000101010 >
#17
05
b00000111 :
#18
b00000010 *
b111 ,
b00000010 3
15
b0000000000000111000 >
#19
05
b00001000 :
1<
#20
b001 +
b000 ,
b00000010 4
15
09
0=
b0000000000001001000 >
1?
#21
05
b00000010 :
0<
#22
15
1=
b0000000000000000000 >
0?
#23
05
#24
b001 ,
15
b0000000000000000100 >
#25
05
b00000011 :
#26
b010 ,
15
b0000000000000001010 >
#27
05
b00000100 :
#28
b011 ,
15
b0000000000000010010 >
#29
05
b00000101 :
#30
b100 ,
15
b0000000000000011100 >
#31
05
b00000110 :
#32
b101 ,
15
b0000000000000101000 >
#33
05
b00000111 :
#34
b110 ,
15
b0000000000000110110 >
#35
05
b00001000 :
#36
b111 ,
15
b0000000000001000110 >
#37
05
b00001001 :
1<
#38
b010 +
b000 ,
15
0=
b0000000000001011000 >
1?
#39
05
b00000011 :
0<
#40
15
1=
b0000000000000000000 >
0?
#41
05
#42
b001 ,
15
b0000000000000000110 >
#43
05
b00000100 :
#44
b010 ,
15
b0000000000000001110 >
#45
05
b00000101 :
#46
b011 ,
15
b0000000000000011000 >
#47
05
b00000110 :
#48
b100 ,
15
b0000000000000100100 >
#49
05
b00000111 :
#50
b101 ,
15
b0000000000000110010 >
#51
05
b00001000 :
#52
b110 ,
15
b0000000000001000010 >
#53
05
b00001001 :
#54
b111 ,
15
b0000000000001010100 >
#55
05
b00001010 :
1<
#56
b011 +
b000 ,
15
0=
b0000000000001101000 >
1?
#57
05
b00000100 :
0<
#58
15
1=
b0000000000000000000 >
0?
#59
05
#60
b001 ,
15
b0000000000000001000 >
#61
05
b00000101 :
#62
b010 ,
15
b0000000000000010010 >
#63
05
b00000110 :
#64
b011 ,
15
b0000000000000011110 >
#65
05
b00000111 :
#66
b100 ,
15
b0000000000000101100 >
#67
05
b00001000 :
#68
b101 ,
15
b0000000000000111100 >
#69
05
b00001001 :
#70
b110 ,
15
b0000000000001001110 >
#71
05
b00001010 :
#72
b111 ,
15
b0000000000001100010 >
#73
05
b00001011 :
1<
#74
b100 +
b000 ,
15
0=
b0000000000001111000 >
1?
#75
05
b00000101 :
0<
#76
15
1=
b0000000000000000000 >
0?
#77
05
#78
b001 ,
15
b0000000000000001010 >
#79
05
b00000110 :
#80
b010 ,
15
b0000000000000010110 >
#81
05
b00000111 :
