verilator.vcd
$version Generated by VerilatedVcd $end
$date Tue Feb 27 21:46:44 2018
 $end
$timescale   1ns $end

 $scope module TOP $end
  $var wire  1 - aclk $end
  $var wire  1 . areset $end
  $var wire  8 / inp_vect [7:0] $end
  $var wire  1 1 inp_vect_rdy $end
  $var wire  1 0 inp_vect_valid $end
  $var wire 18 6 m_axis_tdata [17:0] $end
  $var wire  1 8 m_axis_tlast $end
  $var wire  1 9 m_axis_tready $end
  $var wire  1 7 m_axis_tvalid $end
  $var wire  8 2 s_axis_tdata [7:0] $end
  $var wire  1 4 s_axis_tlast $end
  $var wire  1 5 s_axis_tready $end
  $var wire  1 3 s_axis_tvalid $end
  $scope module mat_vect_mult2 $end
   $var wire  1 - aclk $end
   $var wire  1 . areset $end
   $var wire  2 ' count [1:0] $end
   $var wire  8 / inp_vect [7:0] $end
   $var wire  8 # inp_vect_lat(0) [7:0] $end
   $var wire  8 $ inp_vect_lat(1) [7:0] $end
   $var wire  8 % inp_vect_lat(2) [7:0] $end
   $var wire  8 & inp_vect_lat(3) [7:0] $end
   $var wire  1 1 inp_vect_rdy $end
   $var wire  8 ) inp_vect_reg(0) [7:0] $end
   $var wire  8 * inp_vect_reg(1) [7:0] $end
   $var wire  8 + inp_vect_reg(2) [7:0] $end
   $var wire  8 , inp_vect_reg(3) [7:0] $end
   $var wire  1 0 inp_vect_valid $end
   $var wire 18 6 m_axis_tdata [17:0] $end
   $var wire  1 8 m_axis_tlast $end
   $var wire  1 9 m_axis_tready $end
   $var wire  1 7 m_axis_tvalid $end
   $var wire  8 2 s_axis_tdata [7:0] $end
   $var wire  1 4 s_axis_tlast $end
   $var wire  1 5 s_axis_tready $end
   $var wire  1 3 s_axis_tvalid $end
   $var wire  2 ( slice [1:0] $end
  $upscope $end
 $upscope $end
$enddefinitions $end


#1
b00000000 #
b00000000 $
b00000000 %
b00000000 &
b00 '
b00 (
b00000000 )
b00000000 *
b00000000 +
b00000000 ,
0-
1.
b00000001 /
10
01
b00000001 2
13
04
05
b000000000000000000 6
07
08
09
#2
1-
#3
0-
0.
#4
b00000001 #
1-
11
15
#5
0-
#6
b00000001 $
b01 (
b00000001 )
1-
b000000000000000001 6
#7
b00000010 $
0-
b00000010 /
b00000010 2
#8
b00000010 %
b10 (
b00000010 *
1-
b000000000000000101 6
#9
b00000011 %
0-
b00000011 /
b00000011 2
#10
b00000011 &
b11 (
b00000011 +
1-
b000000000000001110 6
#11
b00000100 &
0-
b00000100 /
b00000100 2
14
#12
b01 '
b00 (
b00000100 ,
1-
01
05
b000000000000011110 6
17
#13
0-
b00000010 2
04
19
#14
1-
b000000000000000000 6
07
#15
0-
09
#16
1-
15
#17
0-
#18
b01 (
1-
b000000000000000010 6
#19
0-
b00000011 2
#20
b10 (
1-
b000000000000001000 6
#21
0-
b00000100 2
#22
b11 (
1-
b000000000000010100 6
#23
0-
b00000101 2
14
#24
b10 '
b00 (
1-
05
b000000000000101000 6
17
#25
0-
b00000011 2
04
19
#26
1-
b000000000000000000 6
07
#27
0-
09
#28
1-
15
#29
0-
#30
b01 (
1-
b000000000000000011 6
#31
0-
b00000100 2
#32
b10 (
1-
b000000000000001011 6
#33
0-
b00000101 2
#34
b11 (
1-
b000000000000011010 6
#35
0-
b00000110 2
14
#36
b11 '
b00 (
1-
05
b000000000000110010 6
17
#37
0-
b00000100 2
04
19
#38
1-
b000000000000000000 6
07
#39
0-
09
#40
1-
15
#41
0-
#42
b01 (
1-
b000000000000000100 6
#43
0-
b00000101 2
#44
b10 (
1-
b000000000000001110 6
#45
0-
b00000110 2
#46
b11 (
1-
b000000000000100000 6
#47
0-
b00000111 2
14
#48
b00 '
b00 (
1-
05
b000000000000111100 6
17
18
#49
0-
b00000001 2
04
19
#50
1-
b000000000000000000 6
07
08
#51
0-
09
#52
b00000100 #
1-
11
15
#53
0-
#54
b00000100 $
b01 (
b00000100 )
1-
b000000000000000100 6
#55
0-
b00000010 2
#56
b00000100 %
b10 (
b00000100 *
1-
b000000000000001100 6
#57
0-
b00000011 2
#58
b11 (
b00000100 +
1-
b000000000000011000 6
#59
0-
b00000100 2
14
#60
b01 '
b00 (
1-
01
05
b000000000000101000 6
17
#61
0-
b00000010 2
04
19
#62
1-
b000000000000000000 6
07
#63
0-
09
#64
1-
15
#65
0-
#66
b01 (
1-
b000000000000001000 6
#67
0-
b00000011 2
#68
b10 (
1-
b000000000000010100 6
#69
0-
b00000100 2
#70
b11 (
1-
b000000000000100100 6
#71
0-
b00000101 2
14
#72
b10 '
b00 (
1-
05
b000000000000111000 6
17
#73
0-
b00000011 2
04
19
#74
1-
b000000000000000000 6
07
#75
0-
09
#76
1-
15
#77
0-
#78
b01 (
1-
b000000000000001100 6
#79
0-
b00000100 2
#80
b10 (
1-
b000000000000011100 6
#81
0-
b00000101 2
