verilator.vcd
$version Generated by VerilatedVcd $end
$date Sun Mar 11 13:22:15 2018
 $end
$timescale   1ns $end

 $scope module TOP $end
  $var wire  1 - aclk $end
  $var wire  1 . areset $end
  $var wire  8 / inp_vect [7:0] $end
  $var wire  1 1 inp_vect_rdy $end
  $var wire  1 0 inp_vect_valid $end
  $var wire  8 6 m_axis_tdata [7:0] $end
  $var wire  1 8 m_axis_tlast $end
  $var wire  1 9 m_axis_tready $end
  $var wire  1 7 m_axis_tvalid $end
  $var wire  8 2 s_axis_tdata [7:0] $end
  $var wire  1 4 s_axis_tlast $end
  $var wire  1 5 s_axis_tready $end
  $var wire  1 3 s_axis_tvalid $end
  $scope module mat_vect_mult2 $end
   $var wire  1 - aclk $end
   $var wire  1 . areset $end
   $var wire  2 ' count [1:0] $end
   $var wire  8 / inp_vect [7:0] $end
   $var wire  8 # inp_vect_lat(0) [7:0] $end
   $var wire  8 $ inp_vect_lat(1) [7:0] $end
   $var wire  8 % inp_vect_lat(2) [7:0] $end
   $var wire  8 & inp_vect_lat(3) [7:0] $end
   $var wire  1 1 inp_vect_rdy $end
   $var wire  8 ) inp_vect_reg(0) [7:0] $end
   $var wire  8 * inp_vect_reg(1) [7:0] $end
   $var wire  8 + inp_vect_reg(2) [7:0] $end
   $var wire  8 , inp_vect_reg(3) [7:0] $end
   $var wire  1 0 inp_vect_valid $end
   $var wire  8 6 m_axis_tdata [7:0] $end
   $var wire  1 8 m_axis_tlast $end
   $var wire  1 9 m_axis_tready $end
   $var wire  1 7 m_axis_tvalid $end
   $var wire  8 2 s_axis_tdata [7:0] $end
   $var wire  1 4 s_axis_tlast $end
   $var wire  1 5 s_axis_tready $end
   $var wire  1 3 s_axis_tvalid $end
   $var wire  2 ( slice [1:0] $end
  $upscope $end
 $upscope $end
$enddefinitions $end


#1
b00000000 #
b00000000 $
b00000000 %
b00000000 &
b00 '
b00 (
b00000000 )
b00000000 *
b00000000 +
b00000000 ,
0-
1.
b00000010 /
10
01
b00000001 2
13
04
05
b00000000 6
07
08
19
#2
1-
#3
0-
0.
#4
b00000010 #
1-
11
15
#5
0-
#6
b00000010 $
b01 (
b00000010 )
1-
b00000010 6
#7
0-
b00000010 2
#8
b00000010 %
b10 (
b00000010 *
1-
b00000110 6
#9
0-
b00000011 2
#10
b00000010 &
b11 (
b00000010 +
1-
b00001100 6
#11
0-
b00000100 2
14
#12
b01 '
b00 (
b00000010 ,
1-
01
05
b00010100 6
17
#13
0-
b00000010 2
04
#14
1-
15
b00000000 6
07
#15
0-
#16
b01 (
1-
b00000100 6
#17
0-
b00000011 2
#18
b10 (
1-
b00001010 6
#19
0-
b00000100 2
#20
b11 (
1-
b00010010 6
#21
0-
b00000101 2
14
#22
b10 '
b00 (
1-
05
b00011100 6
17
#23
0-
b00000011 2
04
#24
1-
15
b00000000 6
07
#25
0-
#26
b01 (
1-
b00000110 6
#27
0-
b00000100 2
#28
b10 (
1-
b00001110 6
#29
0-
b00000101 2
#30
b11 (
1-
b00011000 6
#31
0-
b00000110 2
14
#32
b11 '
b00 (
1-
05
b00100100 6
17
#33
0-
b00000100 2
04
#34
1-
15
b00000000 6
07
#35
0-
#36
b01 (
1-
b00001000 6
#37
0-
b00000101 2
#38
b10 (
1-
b00010010 6
#39
0-
b00000110 2
#40
b11 (
1-
b00011110 6
#41
0-
b00000111 2
14
#42
b00 (
1-
05
b00101100 6
17
#43
0-
b00000001 2
04
#44
1-
15
b00000000 6
07
#45
0-
#46
b01 (
1-
b00000010 6
#47
0-
b00000010 2
#48
b10 (
1-
b00000110 6
#49
0-
b00000011 2
#50
b11 (
1-
b00001100 6
#51
0-
b00000100 2
14
#52
b00 (
1-
05
b00010100 6
17
#53
0-
b00000010 2
04
#54
1-
15
b00000000 6
07
#55
0-
#56
b01 (
1-
b00000100 6
#57
0-
b00000011 2
#58
b10 (
1-
b00001010 6
#59
0-
b00000100 2
#60
b11 (
1-
b00010010 6
#61
0-
b00000101 2
14
#62
b00 (
1-
05
b00011100 6
17
#63
0-
b00000011 2
04
#64
1-
15
b00000000 6
07
#65
0-
#66
b01 (
1-
b00000110 6
#67
0-
b00000100 2
#68
b10 (
1-
b00001110 6
#69
0-
b00000101 2
#70
b11 (
1-
b00011000 6
#71
0-
b00000110 2
14
#72
b00 (
1-
05
b00100100 6
17
#73
0-
b00000100 2
04
#74
1-
15
b00000000 6
07
#75
0-
#76
b01 (
1-
b00001000 6
#77
0-
b00000101 2
#78
b10 (
1-
b00010010 6
#79
0-
b00000110 2
#80
b11 (
1-
b00011110 6
#81
0-
b00000111 2
14
