verilator.vcd
$version Generated by VerilatedVcd $end
$date Thu Mar  1 10:43:05 2018
 $end
$timescale   1ns $end

 $scope module TOP $end
  $var wire  1 / aclk $end
  $var wire  1 0 areset $end
  $var wire  8 1 inp_vect [7:0] $end
  $var wire  1 3 inp_vect_rdy $end
  $var wire  1 2 inp_vect_valid $end
  $var wire 19 8 m_axis_tdata [18:0] $end
  $var wire  1 : m_axis_tlast $end
  $var wire  1 ; m_axis_tready $end
  $var wire  1 9 m_axis_tvalid $end
  $var wire  8 4 s_axis_tdata [7:0] $end
  $var wire  1 6 s_axis_tlast $end
  $var wire  1 7 s_axis_tready $end
  $var wire  1 5 s_axis_tvalid $end
  $scope module mat_vect_mult2 $end
   $var wire  1 / aclk $end
   $var wire  1 0 areset $end
   $var wire  3 ( count [2:0] $end
   $var wire  8 1 inp_vect [7:0] $end
   $var wire  8 # inp_vect_lat(0) [7:0] $end
   $var wire  8 $ inp_vect_lat(1) [7:0] $end
   $var wire  8 % inp_vect_lat(2) [7:0] $end
   $var wire  8 & inp_vect_lat(3) [7:0] $end
   $var wire  8 ' inp_vect_lat(4) [7:0] $end
   $var wire  1 3 inp_vect_rdy $end
   $var wire  8 * inp_vect_reg(0) [7:0] $end
   $var wire  8 + inp_vect_reg(1) [7:0] $end
   $var wire  8 , inp_vect_reg(2) [7:0] $end
   $var wire  8 - inp_vect_reg(3) [7:0] $end
   $var wire  8 . inp_vect_reg(4) [7:0] $end
   $var wire  1 2 inp_vect_valid $end
   $var wire 19 8 m_axis_tdata [18:0] $end
   $var wire  1 : m_axis_tlast $end
   $var wire  1 ; m_axis_tready $end
   $var wire  1 9 m_axis_tvalid $end
   $var wire  8 4 s_axis_tdata [7:0] $end
   $var wire  1 6 s_axis_tlast $end
   $var wire  1 7 s_axis_tready $end
   $var wire  1 5 s_axis_tvalid $end
   $var wire  3 ) slice [2:0] $end
  $upscope $end
 $upscope $end
$enddefinitions $end


#1
b00000000 #
b00000000 $
b00000000 %
b00000000 &
b00000000 '
b000 (
b000 )
b00000000 *
b00000000 +
b00000000 ,
b00000000 -
b00000000 .
0/
10
b00000001 1
12
03
b00000001 4
15
06
07
b0000000000000000000 8
09
0:
1;
#2
1/
#3
0/
00
#4
b00000001 #
1/
13
17
#5
0/
#6
b00000001 $
b001 )
b00000001 *
1/
b0000000000000000001 8
#7
b00000010 $
0/
b00000010 1
b00000010 4
#8
b00000010 %
b010 )
b00000010 +
1/
b0000000000000000101 8
#9
b00000011 %
0/
b00000011 1
b00000011 4
#10
b00000011 &
b011 )
b00000011 ,
1/
b0000000000000001110 8
#11
b00000100 &
0/
b00000100 1
b00000100 4
#12
b00000100 '
b100 )
b00000100 -
1/
b0000000000000011110 8
#13
b00000101 '
0/
b00000101 1
b00000101 4
16
#14
b001 (
b000 )
b00000101 .
1/
03
07
b0000000000000110111 8
19
#15
0/
b00000010 4
06
#16
1/
17
b0000000000000000000 8
09
#17
0/
#18
b001 )
1/
b0000000000000000010 8
#19
0/
b00000011 4
#20
b010 )
1/
b0000000000000001000 8
#21
0/
b00000100 4
#22
b011 )
1/
b0000000000000010100 8
#23
0/
b00000101 4
#24
b100 )
1/
b0000000000000101000 8
#25
0/
b00000110 4
16
#26
b010 (
b000 )
1/
07
b0000000000001000110 8
19
#27
0/
b00000011 4
06
#28
1/
17
b0000000000000000000 8
09
#29
0/
#30
b001 )
1/
b0000000000000000011 8
#31
0/
b00000100 4
#32
b010 )
1/
b0000000000000001011 8
#33
0/
b00000101 4
#34
b011 )
1/
b0000000000000011010 8
#35
0/
b00000110 4
#36
b100 )
1/
b0000000000000110010 8
#37
0/
b00000111 4
16
#38
b011 (
b000 )
1/
07
b0000000000001010101 8
19
#39
0/
b00000100 4
06
#40
1/
17
b0000000000000000000 8
09
#41
0/
#42
b001 )
1/
b0000000000000000100 8
#43
0/
b00000101 4
#44
b010 )
1/
b0000000000000001110 8
#45
0/
b00000110 4
#46
b011 )
1/
b0000000000000100000 8
#47
0/
b00000111 4
#48
b100 )
1/
b0000000000000111100 8
#49
0/
b00001000 4
16
#50
b100 (
b000 )
1/
07
b0000000000001100100 8
19
#51
0/
b00000101 4
06
#52
1/
17
b0000000000000000000 8
09
#53
0/
#54
b001 )
1/
b0000000000000000101 8
#55
0/
b00000110 4
#56
b010 )
1/
b0000000000000010001 8
#57
0/
b00000111 4
#58
b011 )
1/
b0000000000000100110 8
#59
0/
b00001000 4
#60
b100 )
1/
b0000000000001000110 8
#61
0/
b00001001 4
16
#62
b000 )
1/
07
b0000000000001110011 8
19
#63
0/
b00000001 4
06
#64
1/
17
b0000000000000000000 8
09
#65
0/
#66
b001 )
1/
b0000000000000000001 8
#67
0/
b00000010 4
#68
b010 )
1/
b0000000000000000101 8
#69
0/
b00000011 4
#70
b011 )
1/
b0000000000000001110 8
#71
0/
b00000100 4
#72
b100 )
1/
b0000000000000011110 8
#73
0/
b00000101 4
16
#74
b000 )
1/
07
b0000000000000110111 8
19
#75
0/
b00000010 4
06
#76
1/
17
b0000000000000000000 8
09
#77
0/
#78
b001 )
1/
b0000000000000000010 8
#79
0/
b00000011 4
#80
b010 )
1/
b0000000000000001000 8
#81
0/
b00000100 4
